B-
B+
B+
D+
B+
B+
A
B+
B+
B+
A
D+
B-
B+
B+
C+
A
B+
B+
B+
A
D+
B+
A
B+
B+
B+
B-
A
A
C
B+
B+
B-
C+
A
B+
B+
B+
B+
B+
B+
D+
B
B-
A
F
B+
B
F
B+
B-
C+
B+
A
F
B+
B+
D+
A
B+
D+
A
A
B+
B+
B-
A
B+
B+
B-
B+
B+
B-
C+
B+
B+
B+
B+
B+
B+
C+
B-
A
B+
B-
B+
B
B+
B+
A-
B+
A
C
B
D+
A
B+
B+
B+
F
B+
C+
B+
B-
B+
B+
C-
B+
D+
B+
B+
D+
B+
A
B+
A-
A
A
A-
B+
A
A
B-
B+
A
A
A-
D+
B+
A
B+
B+
B+
C
B+
A
B+
B+
D+
B+
B+
D+
B+
B+
F
B-
B+
B-
D+
A
D+
B+
C+
F
B-
B+
C-
A
B+
B+
B+
B+
D+
B-
F
B+
B+
B-
A
A
B-
D+
B-
B+
B+
D+
B+
B+
A
B-
B+
C-
D+
A
B+
B+
B+
B+
A
B
B+
D+
C
B+
B+
B+
A
A-
B+
A
B+
F
B+
D+
B+
B+
D+
B+
C
A
C
C
B+
D+
A
A
C+
B+
B-
B+
B+
B+
A-
B-
B+
A
C
B+
B+
B+
A
B+
A
B+
B+
A
D+
A
C+
B+
C
D+
D+
C
B-
A-
B+
B+
A
C+
B+
B+
B+
B+
B
C+
B-
