B+
A
B+
B+
B+
F
D+
B+
B+
B+
B+
D+
D+
B+
B-
B+
B+
A
B-
B+
B+
B+
B-
B+
B+
A
B+
A
B
A
C-
B+
B+
B+
A
B-
B+
A
B+
B+
B+
B+
A
A
C+
B+
B-
B-
A
A
B+
B+
A
B+
A
A
A
B+
A
B+
B+
B+
A
A-
B+
B-
B+
D-
B+
B+
B+
D+
B+
A
B+
B
B+
B-
B-
A
B-
B+
B+
B+
B-
B+
B+
B+
B-
B+
A
B-
D+
A
A
F
B+
B-
A
A
B+
A
A
C+
B+
D+
B+
A
A
B+
C
B+
B+
A
D+
B+
B+
B+
B+
B+
A-
B+
B+
D+
C+
B+
B-
B
B-
B+
B+
B+
C
B+
B+
B+
D+
A
B+
A
B+
A-
B+
B+
B+
B+
C+
A-
B+
A
B
B+
A
B+
B+
B-
C
B-
A
B-
D+
A
B+
C-
B-
B+
B+
B-
B+
A
F
A
A
F
A-
A
B+
B+
A
D+
A
B+
B+
A
A
B+
B+
B
B+
B+
B+
B+
C+
B+
B+
B+
B-
B+
C
A
A-
B+
B+
B+
A
B-
B-
B-
B+
B-
B+
B+
B+
B-
B+
B+
C-
D+
B+
A
A
B+
B+
B+
A-
B-
B+
B+
B+
A
A
A
C+
C-
A
A
B+
A-
B+
B+
B+
B+
A
B+
B+
B+
A
A
C
B+
A-
B+
B+
B+
A
A
A
D+
A
B+
