B+
B+
B+
B+
A
B+
B+
A
B+
B+
B-
A
B-
B-
A-
B+
A
B+
B+
B+
A
B-
A
A
B+
B+
B+
A
B+
A
B+
B+
B
B+
A-
B+
B+
B+
A-
B+
B-
B-
B+
B+
B+
B+
C+
B+
B-
B+
B+
B+
B+
B+
B+
B+
B+
B+
A
B+
B-
B-
B+
B+
C
B-
B+
B+
C
B+
B+
C+
A
A
B+
B-
B
C+
B+
B+
C+
B+
B+
A
A-
B+
D+
B-
B+
B+
B+
C+
B+
A
D+
B+
B+
B+
B+
B+
B+
B+
B-
B+
B+
C+
B-
B+
A
B+
B+
B+
A-
B-
B+
B+
B-
B-
A
B+
B+
B-
A
B+
B+
B-
B+
B+
D+
B+
B+
D+
B+
B+
B+
B+
B+
A
A
B+
B+
B+
B+
A-
B+
C+
B+
B-
B+
B+
B+
B+
B+
A
C-
B-
B+
B+
C
B-
B+
A
D+
B+
B+
A
A-
A
B-
B+
B+
C+
B-
A-
A
A
B+
A
D+
B+
A
B+
B-
B+
B+
B+
B+
A-
B+
B-
F
B-
B+
A
B+
B+
B+
B+
B+
A
B+
B+
A
B+
B+
C
B+
A
B+
B+
B+
C
A
B
C
B+
B+
B+
B+
C+
A
B+
C+
B+
B+
A-
B+
A
B-
A
B+
B+
B+
B
B+
B+
A
B+
A
A
